#
# Material file
# Created by SpaceClaim
#

newmtl mtl_0
Kd 0.6862745 0.6235294 0.5607843
Ks 0.8 0.8 0.8
Ka 0.2 0.2 0.2

newmtl mtl_1
Kd 1 1 0
Ks 0.8 0.8 0.8
Ka 0.2 0.2 0.2

newmtl mtl_2
Kd 0.9764706 1 0.02352941
Ks 0.8 0.8 0.8
Ka 0.2 0.2 0.2

newmtl mtl_3
Kd 1 1 1
Ks 0.8 0.8 0.8
Ka 0.2 0.2 0.2

newmtl mtl_4
Kd 0.4196078 0.4196078 0.4196078
Ks 0.8 0.8 0.8
Ka 0.2 0.2 0.2

newmtl mtl_5
Kd 0.5607843 0.6862745 0.6235294
Ks 0.8 0.8 0.8
Ka 0.2 0.2 0.2

newmtl mtl_6
Kd 0.827451 0.827451 0.827451
Ks 0.8 0.8 0.8
Ka 0.2 0.2 0.2

newmtl mtl_7
Kd 0.6862745 0.5607843 0.6862745
Ks 0.8 0.8 0.8
Ka 0.2 0.2 0.2

newmtl mtl_8
Kd 0.6862745 0.5607843 0.5607843
Ks 0.8 0.8 0.8
Ka 0.2 0.2 0.2

newmtl mtl_9
Kd 0.5607843 0.6235294 0.6862745
Ks 0.8 0.8 0.8
Ka 0.2 0.2 0.2

newmtl mtl_10
Kd 0.6862745 0.6862745 0.5607843
Ks 0.8 0.8 0.8
Ka 0.2 0.2 0.2

newmtl mtl_11
Kd 0.6235294 0.5607843 0.6862745
Ks 0.8 0.8 0.8
Ka 0.2 0.2 0.2

newmtl mtl_12
Kd 0.5607843 0.6862745 0.5607843
Ks 0.8 0.8 0.8
Ka 0.2 0.2 0.2

newmtl mtl_13
Kd 0 0 0
Ks 0.8 0.8 0.8
Ka 0.2 0.2 0.2

newmtl mtl_14
Kd 0.5607843 0.5607843 0.6862745
Ks 0.8 0.8 0.8
Ka 0.2 0.2 0.2

newmtl mtl_15
Kd 0.09411765 0.1019608 0.1803922
Ks 0.8 0.8 0.8
Ka 0.2 0.2 0.2

newmtl mtl_16
Kd 0.6862745 0.5607843 0.6235294
Ks 0.8 0.8 0.8
Ka 0.2 0.2 0.2

newmtl mtl_17
Kd 0.5607843 0.6862745 0.6862745
Ks 0.8 0.8 0.8
Ka 0.2 0.2 0.2

newmtl mtl_18
Kd 0.6235294 0.6862745 0.5607843
Ks 0.8 0.8 0.8
Ka 0.2 0.2 0.2

newmtl mtl_19
Kd 0.282353 0.282353 0.282353
Ks 0.8 0.8 0.8
Ka 0.2 0.2 0.2
