#VRML V1.0 ascii
Separator {
MaterialBinding {
value PER_FACE_INDEXED
}
Material {
ambientColor [
 0.752941 0.752941 0.752941, 0.249020 0.249020 0.249020, 0.249020 0.249020 0.249020, 0.249020 0.249020 0.249020, 0.249020 0.249020 0.249020,
 0.249020 0.249020 0.249020, 0.249020 0.249020 0.249020
]
diffuseColor [
 0.594824 0.594824 0.594824, 0.249020 0.249020 0.249020, 0.249020 0.249020 0.249020, 0.249020 0.249020 0.249020, 0.249020 0.249020 0.249020,
 0.249020 0.249020 0.249020, 0.249020 0.249020 0.249020
]
emissiveColor [
 0.158118 0.158118 0.158118, 0.249020 0.249020 0.249020, 0.249020 0.249020 0.249020, 0.249020 0.249020 0.249020, 0.249020 0.249020 0.249020,
 0.249020 0.249020 0.249020, 0.249020 0.249020 0.249020
]
specularColor [
 0.662588 0.662588 0.662588, 0.249020 0.249020 0.249020, 0.249020 0.249020 0.249020, 0.249020 0.249020 0.249020, 0.249020 0.249020 0.249020,
 0.249020 0.249020 0.249020, 0.249020 0.249020 0.249020
]
shininess [
 0.210000, 0.500000, 0.500000, 0.500000, 0.500000, 0.500000, 0.500000
]
transparency [
 0.000000, 0.000000, 0.000000, 0.000000, 0.000000, 0.000000, 0.000000
]
}
Coordinate3 {
point [
 -0.035000 -0.040000 -0.027500, -0.035000 -0.040000 0.027500, -0.035000 0.085000 -0.027500, -0.035000 0.085000 0.027500, 0.035000 -0.040000 -0.027500,
 0.035000 -0.040000 0.027500, 0.035000 0.085000 -0.027500, 0.035000 0.085000 0.027500
]
}
IndexedFaceSet {
coordIndex [
 2, 6, 0, -1, 0, 6, 4, -1, 3, 7, 2, -1,
 2, 7, 6, -1, 3, 2, 1, -1, 1, 2, 0, -1,
 4, 5, 0, -1, 0, 5, 1, -1, 6, 7, 4, -1,
 4, 7, 5, -1, 7, 3, 5, -1, 5, 3, 1, -1
]
materialIndex [
 1, 1, 2, 2, 3, 3,
 4, 4, 5, 5, 6, 6,
]
}
}
