#VRML V1.0 ascii
Separator {
MaterialBinding {
value PER_FACE_INDEXED
}
Material {
ambientColor [
 0.752941 0.752941 0.752941, 0.080392 0.080392 0.080392, 0.080392 0.080392 0.080392, 0.249020 0.249020 0.249020, 0.080392 0.080392 0.080392,
 0.080392 0.080392 0.080392, 0.080392 0.080392 0.080392, 0.080392 0.080392 0.080392, 0.080392 0.080392 0.080392, 0.080392 0.080392 0.080392,
 0.249020 0.249020 0.249020, 0.249020 0.249020 0.249020, 0.080392 0.080392 0.080392, 0.249020 0.249020 0.249020, 0.080392 0.080392 0.080392,
 0.080392 0.080392 0.080392, 0.249020 0.249020 0.249020, 0.249020 0.249020 0.249020, 0.249020 0.249020 0.249020, 0.249020 0.249020 0.249020,
 0.249020 0.249020 0.249020, 0.080392 0.080392 0.080392, 0.249020 0.249020 0.249020, 0.249020 0.249020 0.249020, 0.249020 0.249020 0.249020,
 0.249020 0.249020 0.249020, 0.080392 0.080392 0.080392, 0.249020 0.249020 0.249020, 0.249020 0.249020 0.249020, 0.080392 0.080392 0.080392,
 0.249020 0.249020 0.249020, 0.080392 0.080392 0.080392, 0.249020 0.249020 0.249020, 0.374510 0.374510 0.374510, 0.080392 0.080392 0.080392,
 0.249020 0.249020 0.249020, 0.249020 0.249020 0.249020, 0.249020 0.249020 0.249020, 0.249020 0.249020 0.249020, 0.249020 0.249020 0.249020,
 0.249020 0.249020 0.249020, 0.249020 0.249020 0.249020, 0.249020 0.249020 0.249020, 0.249020 0.249020 0.249020, 0.249020 0.249020 0.249020,
 0.249020 0.249020 0.249020, 0.249020 0.249020 0.249020, 0.249020 0.249020 0.249020, 0.249020 0.249020 0.249020, 0.249020 0.249020 0.249020,
 0.249020 0.249020 0.249020, 0.249020 0.249020 0.249020, 0.249020 0.249020 0.249020, 0.249020 0.249020 0.249020, 0.249020 0.249020 0.249020,
 0.374510 0.374510 0.374510, 0.407843 0.407843 0.407843, 0.407843 0.407843 0.407843, 0.407843 0.407843 0.407843
]
diffuseColor [
 0.594824 0.594824 0.594824, 0.080392 0.080392 0.080392, 0.080392 0.080392 0.080392, 0.249020 0.249020 0.249020, 0.080392 0.080392 0.080392,
 0.080392 0.080392 0.080392, 0.080392 0.080392 0.080392, 0.080392 0.080392 0.080392, 0.080392 0.080392 0.080392, 0.080392 0.080392 0.080392,
 0.249020 0.249020 0.249020, 0.249020 0.249020 0.249020, 0.080392 0.080392 0.080392, 0.249020 0.249020 0.249020, 0.080392 0.080392 0.080392,
 0.080392 0.080392 0.080392, 0.249020 0.249020 0.249020, 0.249020 0.249020 0.249020, 0.249020 0.249020 0.249020, 0.249020 0.249020 0.249020,
 0.249020 0.249020 0.249020, 0.080392 0.080392 0.080392, 0.249020 0.249020 0.249020, 0.249020 0.249020 0.249020, 0.249020 0.249020 0.249020,
 0.249020 0.249020 0.249020, 0.080392 0.080392 0.080392, 0.249020 0.249020 0.249020, 0.249020 0.249020 0.249020, 0.080392 0.080392 0.080392,
 0.249020 0.249020 0.249020, 0.080392 0.080392 0.080392, 0.249020 0.249020 0.249020, 0.374510 0.374510 0.374510, 0.080392 0.080392 0.080392,
 0.249020 0.249020 0.249020, 0.249020 0.249020 0.249020, 0.249020 0.249020 0.249020, 0.249020 0.249020 0.249020, 0.249020 0.249020 0.249020,
 0.249020 0.249020 0.249020, 0.249020 0.249020 0.249020, 0.249020 0.249020 0.249020, 0.249020 0.249020 0.249020, 0.249020 0.249020 0.249020,
 0.249020 0.249020 0.249020, 0.249020 0.249020 0.249020, 0.249020 0.249020 0.249020, 0.249020 0.249020 0.249020, 0.249020 0.249020 0.249020,
 0.249020 0.249020 0.249020, 0.249020 0.249020 0.249020, 0.249020 0.249020 0.249020, 0.249020 0.249020 0.249020, 0.249020 0.249020 0.249020,
 0.374510 0.374510 0.374510, 0.407843 0.407843 0.407843, 0.407843 0.407843 0.407843, 0.407843 0.407843 0.407843
]
emissiveColor [
 0.158118 0.158118 0.158118, 0.080392 0.080392 0.080392, 0.080392 0.080392 0.080392, 0.249020 0.249020 0.249020, 0.080392 0.080392 0.080392,
 0.080392 0.080392 0.080392, 0.080392 0.080392 0.080392, 0.080392 0.080392 0.080392, 0.080392 0.080392 0.080392, 0.080392 0.080392 0.080392,
 0.249020 0.249020 0.249020, 0.249020 0.249020 0.249020, 0.080392 0.080392 0.080392, 0.249020 0.249020 0.249020, 0.080392 0.080392 0.080392,
 0.080392 0.080392 0.080392, 0.249020 0.249020 0.249020, 0.249020 0.249020 0.249020, 0.249020 0.249020 0.249020, 0.249020 0.249020 0.249020,
 0.249020 0.249020 0.249020, 0.080392 0.080392 0.080392, 0.249020 0.249020 0.249020, 0.249020 0.249020 0.249020, 0.249020 0.249020 0.249020,
 0.249020 0.249020 0.249020, 0.080392 0.080392 0.080392, 0.249020 0.249020 0.249020, 0.249020 0.249020 0.249020, 0.080392 0.080392 0.080392,
 0.249020 0.249020 0.249020, 0.080392 0.080392 0.080392, 0.249020 0.249020 0.249020, 0.374510 0.374510 0.374510, 0.080392 0.080392 0.080392,
 0.249020 0.249020 0.249020, 0.249020 0.249020 0.249020, 0.249020 0.249020 0.249020, 0.249020 0.249020 0.249020, 0.249020 0.249020 0.249020,
 0.249020 0.249020 0.249020, 0.249020 0.249020 0.249020, 0.249020 0.249020 0.249020, 0.249020 0.249020 0.249020, 0.249020 0.249020 0.249020,
 0.249020 0.249020 0.249020, 0.249020 0.249020 0.249020, 0.249020 0.249020 0.249020, 0.249020 0.249020 0.249020, 0.249020 0.249020 0.249020,
 0.249020 0.249020 0.249020, 0.249020 0.249020 0.249020, 0.249020 0.249020 0.249020, 0.249020 0.249020 0.249020, 0.249020 0.249020 0.249020,
 0.374510 0.374510 0.374510, 0.407843 0.407843 0.407843, 0.407843 0.407843 0.407843, 0.407843 0.407843 0.407843
]
specularColor [
 0.662588 0.662588 0.662588, 0.080392 0.080392 0.080392, 0.080392 0.080392 0.080392, 0.249020 0.249020 0.249020, 0.080392 0.080392 0.080392,
 0.080392 0.080392 0.080392, 0.080392 0.080392 0.080392, 0.080392 0.080392 0.080392, 0.080392 0.080392 0.080392, 0.080392 0.080392 0.080392,
 0.249020 0.249020 0.249020, 0.249020 0.249020 0.249020, 0.080392 0.080392 0.080392, 0.249020 0.249020 0.249020, 0.080392 0.080392 0.080392,
 0.080392 0.080392 0.080392, 0.249020 0.249020 0.249020, 0.249020 0.249020 0.249020, 0.249020 0.249020 0.249020, 0.249020 0.249020 0.249020,
 0.249020 0.249020 0.249020, 0.080392 0.080392 0.080392, 0.249020 0.249020 0.249020, 0.249020 0.249020 0.249020, 0.249020 0.249020 0.249020,
 0.249020 0.249020 0.249020, 0.080392 0.080392 0.080392, 0.249020 0.249020 0.249020, 0.249020 0.249020 0.249020, 0.080392 0.080392 0.080392,
 0.249020 0.249020 0.249020, 0.080392 0.080392 0.080392, 0.249020 0.249020 0.249020, 0.374510 0.374510 0.374510, 0.080392 0.080392 0.080392,
 0.249020 0.249020 0.249020, 0.249020 0.249020 0.249020, 0.249020 0.249020 0.249020, 0.249020 0.249020 0.249020, 0.249020 0.249020 0.249020,
 0.249020 0.249020 0.249020, 0.249020 0.249020 0.249020, 0.249020 0.249020 0.249020, 0.249020 0.249020 0.249020, 0.249020 0.249020 0.249020,
 0.249020 0.249020 0.249020, 0.249020 0.249020 0.249020, 0.249020 0.249020 0.249020, 0.249020 0.249020 0.249020, 0.249020 0.249020 0.249020,
 0.249020 0.249020 0.249020, 0.249020 0.249020 0.249020, 0.249020 0.249020 0.249020, 0.249020 0.249020 0.249020, 0.249020 0.249020 0.249020,
 0.374510 0.374510 0.374510, 0.407843 0.407843 0.407843, 0.407843 0.407843 0.407843, 0.407843 0.407843 0.407843
]
shininess [
 0.210000, 0.500000, 0.500000, 0.500000, 0.500000, 0.500000, 0.500000, 0.500000, 0.500000, 0.500000,
 0.210000, 0.500000, 0.500000, 0.500000, 0.500000, 0.500000, 0.500000, 0.500000, 0.500000, 0.500000, 0.500000, 0.500000, 0.500000, 0.500000, 0.500000, 0.500000, 0.500000, 0.500000, 0.500000, 0.500000,
 0.210000, 0.500000, 0.500000, 0.500000, 0.500000, 0.500000, 0.500000, 0.500000, 0.500000, 0.500000, 0.500000, 0.500000, 0.500000, 0.500000, 0.500000, 0.500000, 0.500000, 0.500000, 0.500000, 0.500000, 0.500000, 0.500000, 0.500000, 0.500000, 0.500000, 0.500000, 0.500000, 0.500000, 0.500000, 0.500000,
 0.210000, 0.500000, 0.500000, 0.500000, 0.500000, 0.500000, 0.500000, 0.500000, 0.500000, 0.500000, 0.500000, 0.500000, 0.500000, 0.500000, 0.500000, 0.500000, 0.500000, 0.500000, 0.500000, 0.500000, 0.500000, 0.500000, 0.500000, 0.500000, 0.500000, 0.500000, 0.500000, 0.500000, 0.500000, 0.500000, 0.500000, 0.500000, 0.500000, 0.500000, 0.500000, 0.500000, 0.500000, 0.500000, 0.500000, 0.500000,
 0.210000, 0.500000, 0.500000, 0.500000, 0.500000, 0.500000, 0.500000, 0.500000, 0.500000, 0.500000, 0.500000, 0.500000, 0.500000, 0.500000, 0.500000, 0.500000, 0.500000, 0.500000, 0.500000, 0.500000, 0.500000, 0.500000, 0.500000, 0.500000, 0.500000, 0.500000, 0.500000, 0.500000, 0.500000, 0.500000, 0.500000, 0.500000, 0.500000, 0.500000, 0.500000, 0.500000, 0.500000, 0.500000, 0.500000, 0.500000, 0.500000, 0.500000, 0.500000, 0.500000, 0.500000, 0.500000, 0.500000, 0.500000, 0.500000, 0.500000,
 0.500000, 0.500000, 0.500000, 0.500000, 0.500000, 0.500000, 0.500000, 0.500000, 0.500000
]
transparency [
 0.000000, 0.000000, 0.000000, 0.000000, 0.000000, 0.000000, 0.000000, 0.000000, 0.000000, 0.000000,
 0.000000, 0.000000, 0.000000, 0.000000, 0.000000, 0.000000, 0.000000, 0.000000, 0.000000, 0.000000, 0.000000, 0.000000, 0.000000, 0.000000, 0.000000, 0.000000, 0.000000, 0.000000, 0.000000, 0.000000,
 0.000000, 0.000000, 0.000000, 0.000000, 0.000000, 0.000000, 0.000000, 0.000000, 0.000000, 0.000000, 0.000000, 0.000000, 0.000000, 0.000000, 0.000000, 0.000000, 0.000000, 0.000000, 0.000000, 0.000000, 0.000000, 0.000000, 0.000000, 0.000000, 0.000000, 0.000000, 0.000000, 0.000000, 0.000000, 0.000000,
 0.000000, 0.000000, 0.000000, 0.000000, 0.000000, 0.000000, 0.000000, 0.000000, 0.000000, 0.000000, 0.000000, 0.000000, 0.000000, 0.000000, 0.000000, 0.000000, 0.000000, 0.000000, 0.000000, 0.000000, 0.000000, 0.000000, 0.000000, 0.000000, 0.000000, 0.000000, 0.000000, 0.000000, 0.000000, 0.000000, 0.000000, 0.000000, 0.000000, 0.000000, 0.000000, 0.000000, 0.000000, 0.000000, 0.000000, 0.000000,
 0.000000, 0.000000, 0.000000, 0.000000, 0.000000, 0.000000, 0.000000, 0.000000, 0.000000, 0.000000, 0.000000, 0.000000, 0.000000, 0.000000, 0.000000, 0.000000, 0.000000, 0.000000, 0.000000, 0.000000, 0.000000, 0.000000, 0.000000, 0.000000, 0.000000, 0.000000, 0.000000, 0.000000, 0.000000, 0.000000, 0.000000, 0.000000, 0.000000, 0.000000, 0.000000, 0.000000, 0.000000, 0.000000, 0.000000, 0.000000, 0.000000, 0.000000, 0.000000, 0.000000, 0.000000, 0.000000, 0.000000, 0.000000, 0.000000, 0.000000,
 0.000000, 0.000000, 0.000000, 0.000000, 0.000000, 0.000000, 0.000000, 0.000000, 0.000000
]
}
Coordinate3 {
point [
 -0.244000 -0.015000 0.000000, -0.244000 -0.012990 -0.007500, -0.244000 -0.012990 0.007500, -0.244000 -0.007500 -0.012990, -0.244000 -0.007500 0.012990,
 -0.244000 0.000000 -0.015000, -0.244000 0.000000 0.015000, -0.244000 0.007500 -0.012990, -0.244000 0.007500 0.012990, -0.244000 0.012990 -0.007500,
 -0.244000 0.012990 0.007500, -0.244000 0.015000 0.000000, -0.086000 -0.015000 0.000000, -0.086000 -0.014750 0.000000, -0.086000 -0.012990 -0.007500,
 -0.086000 -0.012990 0.007500, -0.086000 -0.012774 -0.007375, -0.086000 -0.012774 0.007375, -0.086000 -0.007500 -0.012990, -0.086000 -0.007500 0.012990,
 -0.086000 -0.007375 -0.012774, -0.086000 -0.007375 0.012774, -0.086000 0.000000 -0.015000, -0.086000 -0.000000 -0.014750, -0.086000 -0.000000 0.014750,
 -0.086000 0.000000 0.015000, -0.086000 0.007375 -0.012774, -0.086000 0.007375 0.012774, -0.086000 0.007500 -0.012990, -0.086000 0.007500 0.012990,
 -0.086000 0.012774 -0.007375, -0.086000 0.012774 0.007375, -0.086000 0.012990 -0.007500, -0.086000 0.012990 0.007500, -0.086000 0.014750 0.000000,
 -0.086000 0.015000 0.000000, -0.065000 -0.021000 -0.008500, -0.065000 -0.021000 -0.000750, -0.065000 -0.021000 0.000750, -0.065000 -0.021000 0.008500,
 -0.065000 -0.014750 0.000000, -0.065000 -0.014731 -0.000750, -0.065000 -0.014731 0.000750, -0.065000 -0.012774 -0.007375, -0.065000 -0.012774 0.007375,
 -0.065000 -0.012359 -0.008500, -0.065000 -0.012359 0.008500, -0.065000 -0.007375 -0.012774, -0.065000 -0.007375 0.012774, -0.065000 -0.007059 -0.013235,
 -0.065000 -0.007059 0.013235, -0.065000 0.000000 -0.015000, -0.065000 -0.000000 -0.014750, -0.065000 -0.000000 0.014750, -0.065000 0.000000 0.015000,
 -0.065000 0.007059 -0.013235, -0.065000 0.007059 0.013235, -0.065000 0.007375 -0.012774, -0.065000 0.007375 0.012774, -0.065000 0.012359 -0.008500,
 -0.065000 0.012359 0.008500, -0.065000 0.012774 -0.007375, -0.065000 0.012774 0.007375, -0.065000 0.014731 -0.000750, -0.065000 0.014731 0.000750,
 -0.065000 0.014750 0.000000, -0.065000 0.021000 -0.008500, -0.065000 0.021000 -0.000750, -0.065000 0.021000 0.000750, -0.065000 0.021000 0.008500,
 -0.064876 -0.021000 -0.009192, -0.064876 -0.021000 0.009192, -0.064876 0.021000 -0.009192, -0.064876 0.021000 0.009192, -0.064840 -0.011796 -0.009263,
 -0.064840 -0.011796 0.009263, -0.064840 0.011796 -0.009263, -0.064840 0.011796 0.009263, -0.064835 -0.021000 -0.009257, -0.064835 -0.021000 0.009257,
 -0.064835 0.021000 -0.009257, -0.064835 0.021000 0.009257, -0.064831 -0.011765 -0.009305, -0.064831 -0.011765 0.009305, -0.064831 0.011765 -0.009305,
 -0.064831 0.011765 0.009305, -0.064629 -0.023077 -0.008500, -0.064629 -0.023077 0.008500, -0.064629 0.023077 -0.008500, -0.064629 0.023077 0.008500,
 -0.064513 -0.023034 -0.009192, -0.064513 -0.023034 0.009192, -0.064513 0.023034 -0.009192, -0.064513 0.023034 0.009192, -0.064414 -0.021000 -0.009914,
 -0.064414 -0.021000 0.009914, -0.064414 0.021000 -0.009914, -0.064414 0.021000 0.009914, -0.064399 -0.011263 -0.009903, -0.064399 -0.011263 0.009903,
 -0.064399 0.011263 -0.009903, -0.064399 0.011263 0.009903, -0.064341 -0.011195 -0.009983, -0.064341 -0.011195 0.009983, -0.064341 0.011195 -0.009983,
 -0.064341 0.011195 0.009983, -0.064196 -0.024000 -0.000750, -0.064196 -0.024000 0.000750, -0.064196 0.024000 -0.000750, -0.064196 0.024000 0.000750,
 -0.064084 -0.023928 -0.008500, -0.064084 -0.023928 0.008500, -0.064084 0.023928 -0.008500, -0.064084 0.023928 0.008500, -0.064080 -0.022874 -0.009914,
 -0.064080 -0.022874 0.009914, -0.064080 0.022874 -0.009914, -0.064080 0.022874 0.009914, -0.063838 -0.010889 -0.010316, -0.063838 -0.010889 0.010316,
 -0.063838 0.010889 -0.010316, -0.063838 0.010889 0.010316, -0.063763 -0.010867 -0.010339, -0.063763 -0.010867 0.010339, -0.063763 0.010867 -0.010339,
 -0.063763 0.010867 0.010339, -0.063757 -0.021000 -0.010335, -0.063757 -0.021000 0.010335, -0.063757 0.021000 -0.010335, -0.063757 0.021000 0.010335,
 -0.063692 -0.021000 -0.010376, -0.063692 -0.021000 0.010376, -0.063692 0.021000 -0.010376, -0.063692 0.021000 0.010376, -0.063500 -0.019000 -0.016000,
 -0.063500 -0.019000 -0.010500, -0.063500 0.019000 -0.016000, -0.063500 0.019000 -0.010500, -0.063402 -0.022624 -0.010376, -0.063402 -0.022624 0.010376,
 -0.063402 0.022624 -0.010376, -0.063402 0.022624 0.010376, -0.063341 -0.010741 -0.010471, -0.063341 -0.010741 0.010471, -0.063341 0.010741 -0.010471,
 -0.063341 0.010741 0.010471, -0.063243 -0.025243 -0.008500, -0.063243 -0.025243 0.008500, -0.063243 0.025243 -0.008500, -0.063243 0.025243 0.008500,
 -0.063155 -0.025155 -0.009192, -0.063155 -0.025155 0.009192, -0.063155 0.025155 -0.009192, -0.063155 0.025155 0.009192, -0.063000 -0.021000 -0.010500,
 -0.063000 -0.021000 0.010500, -0.063000 -0.019000 -0.016500, -0.063000 -0.016500 -0.010500, -0.063000 -0.010712 -0.010500, -0.063000 -0.010712 0.010500,
 -0.063000 0.010712 -0.010500, -0.063000 0.010712 0.010500, -0.063000 0.016500 -0.010500, -0.063000 0.019000 -0.016500, -0.063000 0.021000 -0.010500,
 -0.063000 0.021000 0.010500, -0.062988 -0.021305 -0.010500, -0.062988 0.021305 -0.010500, -0.062953 -0.021609 -0.010500, -0.062953 0.021609 -0.010500,
 -0.062828 -0.024828 -0.009914, -0.062828 -0.024828 0.009914, -0.062828 0.024828 -0.009914, -0.062828 0.024828 0.009914, -0.062753 -0.022384 -0.010500,
 -0.062753 -0.022384 0.010500, -0.062753 0.022384 -0.010500, -0.062753 0.022384 0.010500, -0.062629 -0.022250 -0.016000, -0.062629 -0.022250 -0.010500,
 -0.062629 -0.015750 -0.016000, -0.062629 -0.015750 -0.010500, -0.062629 0.015750 -0.016000, -0.062629 0.015750 -0.010500, -0.062629 0.022250 -0.016000,
 -0.062629 0.022250 -0.010500, -0.062318 -0.024318 -0.010376, -0.062318 -0.024318 0.010376, -0.062318 0.024318 -0.010376, -0.062318 0.024318 0.010376,
 -0.062196 -0.022000 -0.016500, -0.062196 -0.016000 -0.016500, -0.062196 0.016000 -0.016500, -0.062196 0.022000 -0.016500, -0.062000 -0.026196 -0.000750,
 -0.062000 -0.026196 0.000750, -0.062000 0.026196 -0.000750, -0.062000 0.026196 0.000750, -0.061928 -0.026084 -0.008500, -0.061928 -0.026084 0.008500,
 -0.061928 0.026084 -0.008500, -0.061928 0.026084 0.008500, -0.061828 -0.023828 -0.010500, -0.061828 -0.023828 0.010500, -0.061828 0.023828 -0.010500,
 -0.061828 0.023828 0.010500, -0.061077 -0.026629 -0.008500, -0.061077 -0.026629 0.008500, -0.061077 0.026629 -0.008500, -0.061077 0.026629 0.008500,
 -0.061034 -0.026513 -0.009192, -0.061034 -0.026513 0.009192, -0.061034 0.026513 -0.009192, -0.061034 0.026513 0.009192, -0.060874 -0.026080 -0.009914,
 -0.060874 -0.026080 0.009914, -0.060874 0.026080 -0.009914, -0.060874 0.026080 0.009914, -0.060624 -0.025402 -0.010376, -0.060624 -0.025402 0.010376,
 -0.060624 0.025402 -0.010376, -0.060624 0.025402 0.010376, -0.060384 -0.024753 -0.010500, -0.060384 -0.024753 0.010500, -0.060384 0.024753 -0.010500,
 -0.060384 0.024753 0.010500, -0.060250 -0.024629 -0.016000, -0.060250 -0.024629 -0.010500, -0.060250 -0.013371 -0.016000, -0.060250 -0.013371 -0.010500,
 -0.060250 0.013371 -0.016000, -0.060250 0.013371 -0.010500, -0.060250 0.024629 -0.016000, -0.060250 0.024629 -0.010500, -0.060000 -0.024196 -0.016500,
 -0.060000 -0.019000 -0.000750, -0.060000 -0.019000 0.000750, -0.060000 -0.013804 -0.016500, -0.060000 0.013804 -0.016500, -0.060000 0.019000 -0.000750,
 -0.060000 0.019000 0.000750, -0.060000 0.024196 -0.016500, -0.059609 -0.024953 -0.010500, -0.059609 0.024953 -0.010500, -0.059598 -0.020500 -0.000750,
 -0.059598 -0.020500 0.000750, -0.059598 -0.017500 -0.000750, -0.059598 -0.017500 0.000750, -0.059598 0.017500 -0.000750, -0.059598 0.017500 0.000750,
 -0.059598 0.020500 -0.000750, -0.059598 0.020500 0.000750, -0.059305 -0.024988 -0.010500, -0.059305 0.024988 -0.010500, -0.059000 -0.027000 -0.008500,
 -0.059000 -0.027000 -0.000750, -0.059000 -0.027000 0.000750, -0.059000 -0.027000 0.008500, -0.059000 -0.026876 -0.009192, -0.059000 -0.026876 0.009192,
 -0.059000 -0.026414 -0.009914, -0.059000 -0.026414 0.009914, -0.059000 -0.025692 -0.010376, -0.059000 -0.025692 0.010376, -0.059000 -0.025000 -0.010500,
 -0.059000 -0.025000 0.010500, -0.059000 0.025000 -0.010500, -0.059000 0.025000 0.010500, -0.059000 0.025692 -0.010376, -0.059000 0.025692 0.010376,
 -0.059000 0.026414 -0.009914, -0.059000 0.026414 0.009914, -0.059000 0.026876 -0.009192, -0.059000 0.026876 0.009192, -0.059000 0.027000 -0.008500,
 -0.059000 0.027000 -0.000750, -0.059000 0.027000 0.000750, -0.059000 0.027000 0.008500, -0.058500 -0.021598 -0.000750, -0.058500 -0.021598 0.000750,
 -0.058500 -0.016402 -0.000750, -0.058500 -0.016402 0.000750, -0.058500 0.016402 -0.000750, -0.058500 0.016402 0.000750, -0.058500 0.021598 -0.000750,
 -0.058500 0.021598 0.000750, -0.057000 -0.025500 -0.016000, -0.057000 -0.025500 -0.010500, -0.057000 -0.025000 -0.016500, -0.057000 -0.022000 -0.000750,
 -0.057000 -0.022000 0.000750, -0.057000 -0.016000 -0.000750, -0.057000 -0.016000 0.000750, -0.057000 -0.013000 -0.016500, -0.057000 -0.012500 -0.016000,
 -0.057000 -0.012500 -0.010500, -0.057000 0.012500 -0.016000, -0.057000 0.012500 -0.010500, -0.057000 0.013000 -0.016500, -0.057000 0.016000 -0.000750,
 -0.057000 0.016000 0.000750, -0.057000 0.022000 -0.000750, -0.057000 0.022000 0.000750, -0.057000 0.025000 -0.016500, -0.057000 0.025500 -0.016000,
 -0.057000 0.025500 -0.010500, -0.055500 -0.021598 -0.000750, -0.055500 -0.021598 0.000750, -0.055500 -0.016402 -0.000750, -0.055500 -0.016402 0.000750,
 -0.055500 0.016402 -0.000750, -0.055500 0.016402 0.000750, -0.055500 0.021598 -0.000750, -0.055500 0.021598 0.000750, -0.054500 -0.025000 -0.010500,
 -0.054500 0.025000 -0.010500, -0.054402 -0.020500 -0.000750, -0.054402 -0.020500 0.000750, -0.054402 -0.017500 -0.000750, -0.054402 -0.017500 0.000750,
 -0.054402 0.017500 -0.000750, -0.054402 0.017500 0.000750, -0.054402 0.020500 -0.000750, -0.054402 0.020500 0.000750, -0.054000 -0.024196 -0.016500,
 -0.054000 -0.019000 -0.000750, -0.054000 -0.019000 0.000750, -0.054000 -0.013804 -0.016500, -0.054000 0.013804 -0.016500, -0.054000 0.019000 -0.000750,
 -0.054000 0.019000 0.000750, -0.054000 0.024196 -0.016500, -0.053750 -0.024629 -0.016000, -0.053750 -0.024629 -0.010500, -0.053750 -0.013371 -0.016000,
 -0.053750 -0.013371 -0.010500, -0.053750 0.013371 -0.016000, -0.053750 0.013371 -0.010500, -0.053750 0.024629 -0.016000, -0.053750 0.024629 -0.010500,
 -0.051804 -0.022000 -0.016500, -0.051804 -0.016000 -0.016500, -0.051804 0.016000 -0.016500, -0.051804 0.022000 -0.016500, -0.051371 -0.022250 -0.016000,
 -0.051371 -0.022250 -0.010500, -0.051371 -0.015750 -0.016000, -0.051371 -0.015750 -0.010500, -0.051371 0.015750 -0.016000, -0.051371 0.015750 -0.010500,
 -0.051371 0.022250 -0.016000, -0.051371 0.022250 -0.010500, -0.051000 -0.019000 -0.016500, -0.051000 0.019000 -0.016500, -0.050500 -0.019000 -0.016000,
 -0.050500 -0.019000 -0.010500, -0.050500 0.019000 -0.016000, -0.050500 0.019000 -0.010500, -0.035000 -0.027000 -0.000750, -0.035000 -0.027000 0.000750,
 -0.035000 0.027000 -0.000750, -0.035000 0.027000 0.000750, -0.031000 -0.010712 -0.010500, -0.031000 -0.010712 0.010500, -0.031000 -0.006947 -0.013070,
 -0.031000 -0.006947 0.013070, -0.031000 -0.005875 -0.013801, -0.031000 -0.005875 0.013801, -0.031000 0.000000 -0.015000, -0.031000 -0.000000 0.015000,
 -0.031000 0.005875 -0.013801, -0.031000 0.005875 0.013801, -0.031000 0.006947 -0.013070, -0.031000 0.006947 0.013070, -0.031000 0.010712 -0.010500,
 -0.031000 0.010712 0.010500, -0.030299 0.009706 -0.010500, -0.030299 0.009706 0.010500, -0.028681 -0.007111 -0.010500, -0.028681 -0.007111 0.010500,
 -0.028668 0.007088 -0.010500, -0.028668 0.007088 0.010500, -0.027554 -0.004542 -0.010500, -0.027554 -0.004542 0.010500, -0.027553 0.004541 -0.010500,
 -0.027553 0.004541 0.010500, -0.027000 -0.003279 -0.010500, -0.027000 -0.003279 0.010500, -0.027000 -0.000000 -0.011000, -0.027000 -0.000000 0.011000,
 -0.027000 0.003279 -0.010500, -0.027000 0.003279 0.010500, -0.015250 -0.000000 -0.012500, -0.015250 -0.000000 -0.010500, -0.015250 -0.000000 0.010500,
 -0.015250 -0.000000 0.012500, -0.013207 -0.007625 -0.012500, -0.013207 -0.007625 -0.010500, -0.013207 -0.007625 0.010500, -0.013207 -0.007625 0.012500,
 -0.013207 0.007625 -0.012500, -0.013207 0.007625 -0.010500, -0.013207 0.007625 0.010500, -0.013207 0.007625 0.012500, -0.012500 -0.000000 -0.012500,
 -0.012500 -0.000000 0.012500, -0.010825 -0.006250 -0.012500, -0.010825 -0.006250 0.012500, -0.010825 0.006250 -0.012500, -0.010825 0.006250 0.012500,
 -0.010583 -0.027000 -0.008500, -0.010583 -0.027000 0.008500, -0.010583 0.027000 -0.008500, -0.010583 0.027000 0.008500, -0.010579 -0.026978 -0.008795,
 -0.010579 0.026978 0.008795, -0.010551 -0.026833 0.009182, -0.010551 -0.026833 0.009182, -0.010551 0.026833 -0.009182, -0.010551 0.026833 -0.009182,
 -0.010550 -0.026826 -0.009172, -0.010550 -0.026826 -0.009172, -0.010550 0.026826 0.009172, -0.010550 0.026826 0.009172, -0.010540 -0.026773 0.009426,
 -0.010540 0.026773 -0.009426, -0.010513 -0.026630 -0.009659, -0.010513 0.026630 0.009659, -0.010467 -0.026390 0.009894, -0.010467 0.026390 -0.009894,
 -0.010465 -0.026379 -0.009872, -0.010465 -0.026379 -0.009873, -0.010465 0.026379 0.009873, -0.010465 0.026379 0.009872, -0.010442 -0.026259 0.010054,
 -0.010442 0.026259 -0.010054, -0.010369 -0.025882 -0.010295, -0.010369 0.025882 0.010295, -0.010331 -0.025684 -0.010341, -0.010331 0.025684 0.010341,
 -0.010331 -0.025684 -0.010341, -0.010331 0.025684 0.010341, -0.010329 -0.025674 0.010339, -0.010329 -0.025674 0.010339, -0.010329 0.025674 -0.010339,
 -0.010329 0.025674 -0.010339, -0.010286 -0.025450 0.010449, -0.010286 0.025450 -0.010449, -0.010198 -0.025000 -0.010500, -0.010198 -0.025000 0.010500,
 -0.010198 0.025000 -0.010500, -0.010198 0.025000 0.010500, -0.009575 -0.027374 -0.008500, -0.009575 -0.027374 0.008500, -0.009575 0.027374 -0.008500,
 -0.009575 0.027374 0.008500, -0.009535 -0.027257 -0.009192, -0.009535 -0.027257 0.009192, -0.009535 0.027257 -0.009192, -0.009535 0.027257 0.009192,
 -0.009382 -0.026821 -0.009914, -0.009382 -0.026821 0.009914, -0.009382 0.026821 -0.009914, -0.009382 0.026821 0.009914, -0.009144 -0.026139 -0.010376,
 -0.009144 -0.026139 0.010376, -0.009144 0.026139 -0.010376, -0.009144 0.026139 0.010376, -0.008915 -0.025486 0.010500, -0.008915 0.025486 0.010500,
 -0.008914 -0.025484 -0.010500, -0.008888 0.025394 -0.010500, -0.008822 -0.025519 -0.010500, -0.007625 -0.013207 -0.012500, -0.007625 -0.013207 -0.010500,
 -0.007625 -0.013207 0.010500, -0.007625 -0.013207 0.012500, -0.007625 0.013207 -0.012500, -0.007625 0.013207 -0.010500, -0.007625 0.013207 0.010500,
 -0.007625 0.013207 0.012500, -0.006250 -0.010825 -0.012500, -0.006250 -0.010825 0.012500, -0.006250 0.010825 -0.012500, -0.006250 0.010825 0.012500,
 -0.005292 0.026477 -0.010500, -0.004076 -0.026691 -0.010500, -0.001856 -0.028941 -0.008500, -0.001856 -0.028941 0.008500, -0.001856 0.028941 -0.008500,
 -0.001856 0.028941 0.008500, -0.001848 -0.028817 -0.009192, -0.001848 -0.028817 0.009192, -0.001848 0.028817 -0.009192, -0.001848 0.028817 0.009192,
 -0.001818 -0.028356 -0.009914, -0.001818 -0.028356 0.009914, -0.001818 0.028356 -0.009914, -0.001818 0.028356 0.009914, -0.001772 -0.027635 -0.010376,
 -0.001772 -0.027635 0.010376, -0.001772 0.027635 -0.010376, -0.001772 0.027635 0.010376, -0.001728 -0.026945 0.010500, -0.001728 0.026945 0.010500,
 -0.001721 -0.026830 -0.010500, -0.001721 0.026881 -0.010500, -0.000773 0.026989 -0.010500, -0.000592 -0.028849 -0.008500, -0.000592 -0.028849 0.008500,
 -0.000592 0.028849 -0.008500, -0.000592 0.028849 0.008500, -0.000000 -0.015250 -0.012500, -0.000000 -0.015250 -0.010500, -0.000000 -0.015250 0.010500,
 -0.000000 -0.015250 0.012500, 0.000000 -0.012500 -0.012500, 0.000000 -0.012500 0.012500, 0.000000 0.012500 -0.012500, 0.000000 0.012500 0.012500,
 -0.000000 0.015250 -0.012500, -0.000000 0.015250 -0.010500, -0.000000 0.015250 0.010500, -0.000000 0.015250 0.012500, 0.000910 -0.026985 -0.010500,
 0.004520 0.026619 -0.010500, 0.005568 0.026341 -0.010500, 0.005583 -0.026381 -0.010500, 0.005587 -0.026416 0.010500, 0.005587 0.026416 0.010500,
 0.005730 -0.027093 -0.010376, 0.005730 -0.027093 0.010376, 0.005730 0.027093 -0.010376, 0.005730 0.027093 0.010376, 0.005880 -0.027799 -0.009914,
 0.005880 -0.027799 0.009914, 0.005880 0.027799 -0.009914, 0.005880 0.027799 0.009914, 0.005974 -0.026331 -0.010500, 0.005975 -0.028251 -0.009192,
 0.005975 -0.028251 0.009192, 0.005975 0.028251 -0.009192, 0.005975 0.028251 0.009192, 0.006001 -0.028372 -0.008500, 0.006001 -0.028372 0.008500,
 0.006001 0.028372 -0.008500, 0.006001 0.028372 0.008500, 0.006250 -0.010825 -0.012500, 0.006250 -0.010825 0.012500, 0.006250 0.010825 -0.012500,
 0.006250 0.010825 0.012500, 0.007625 -0.013207 -0.012500, 0.007625 -0.013207 -0.010500, 0.007625 -0.013207 0.010500, 0.007625 -0.013207 0.012500,
 0.007625 0.013207 -0.012500, 0.007625 0.013207 -0.010500, 0.007625 0.013207 0.010500, 0.007625 0.013207 0.012500, 0.009257 0.025364 -0.010500,
 0.009402 -0.027151 -0.008500, 0.009402 -0.027151 0.008500, 0.009402 0.027151 -0.008500, 0.009402 0.027151 0.008500, 0.010584 -0.024839 -0.010500,
 0.010825 -0.006250 -0.012500, 0.010825 -0.006250 0.012500, 0.010825 0.006250 -0.012500, 0.010825 0.006250 0.012500, 0.012429 -0.023827 -0.010500,
 0.012446 0.023846 -0.010500, 0.012490 -0.023937 0.010500, 0.012490 0.023937 0.010500, 0.012500 0.000000 -0.012500, 0.012500 0.000000 0.012500,
 0.012810 -0.024551 -0.010376, 0.012810 -0.024551 0.010376, 0.012810 0.024551 -0.010376, 0.012810 0.024551 0.010376, 0.013144 -0.025191 -0.009914,
 0.013144 -0.025191 0.009914, 0.013144 0.025191 -0.009914, 0.013144 0.025191 0.009914, 0.013207 -0.007625 -0.012500, 0.013207 -0.007625 -0.010500,
 0.013207 -0.007625 0.010500, 0.013207 -0.007625 0.012500, 0.013207 0.007625 -0.012500, 0.013207 0.007625 -0.010500, 0.013207 0.007625 0.010500,
 0.013207 0.007625 0.012500, 0.013358 -0.025601 -0.009192, 0.013358 -0.025601 0.009192, 0.013358 0.025601 -0.009192, 0.013358 0.025601 0.009192,
 0.013415 -0.025711 -0.008500, 0.013415 -0.025711 0.008500, 0.013415 0.025711 -0.008500, 0.013415 0.025711 0.008500, 0.013848 0.023178 -0.010500,
 0.015250 -0.000000 -0.012500, 0.015250 -0.000000 -0.010500, 0.015250 -0.000000 0.010500, 0.015250 -0.000000 0.012500, 0.015260 -0.022274 -0.010500,
 0.017823 0.020283 -0.010500, 0.018278 -0.022260 -0.008500, 0.018278 -0.022260 0.008500, 0.018278 0.022260 -0.008500, 0.018278 0.022260 0.008500,
 0.018423 0.019648 -0.010500, 0.018453 -0.019671 -0.010500, 0.018471 -0.019693 0.010500, 0.018471 0.019693 0.010500, 0.018753 -0.019426 -0.010500,
 0.018945 -0.020198 -0.010376, 0.018945 -0.020198 0.010376, 0.018945 0.020198 -0.010376, 0.018945 0.020198 0.010376, 0.019438 -0.020725 -0.009914,
 0.019438 -0.020725 0.009914, 0.019438 0.020725 -0.009914, 0.019438 0.020725 0.009914, 0.019755 -0.021062 -0.009192, 0.019755 -0.021062 0.009192,
 0.019755 0.021062 -0.009192, 0.019755 0.021062 0.009192, 0.019839 -0.021152 -0.008500, 0.019839 -0.021152 0.008500, 0.019839 0.021152 -0.008500,
 0.019839 0.021152 0.008500, 0.021264 0.016639 -0.010500, 0.022079 -0.015542 -0.010500, 0.023004 -0.013946 -0.010500, 0.023025 0.013954 -0.010500,
 0.023089 -0.013996 0.010500, 0.023089 0.013996 0.010500, 0.023681 -0.014355 -0.010376, 0.023681 -0.014355 0.010376, 0.023681 0.014355 -0.010376,
 0.023681 0.014355 0.010376, 0.023731 0.012878 -0.010500, 0.024299 -0.014729 -0.009914, 0.024299 -0.014729 0.009914, 0.024299 0.014729 -0.009914,
 0.024299 0.014729 0.009914, 0.024462 -0.011428 -0.010500, 0.024694 -0.014969 -0.009192, 0.024694 -0.014969 0.009192, 0.024694 0.014969 -0.009192,
 0.024694 0.014969 0.009192, 0.024800 -0.015033 -0.008500, 0.024800 -0.015033 0.008500, 0.024800 0.015033 -0.008500, 0.024800 0.015033 0.008500,
 0.024967 -0.014646 -0.008500, 0.024967 -0.014646 0.008500, 0.024967 0.014646 -0.008500, 0.024967 0.014646 0.008500, 0.025818 0.007903 -0.010500,
 0.025957 0.007256 -0.010500, 0.025962 -0.007251 -0.010500, 0.026004 -0.007266 0.010500, 0.026004 0.007266 0.010500, 0.026144 -0.006745 -0.010500,
 0.026671 -0.007452 -0.010376, 0.026671 -0.007452 0.010376, 0.026671 0.007452 -0.010376, 0.026671 0.007452 0.010376, 0.026783 0.003413 -0.010500,
 0.026886 -0.000003 -0.010500, 0.026940 -0.001794 -0.010500, 0.027000 0.000000 0.010500, 0.027366 -0.007647 -0.009914, 0.027366 -0.007647 0.009914,
 0.027366 0.007647 -0.009914, 0.027366 0.007647 0.009914, 0.027692 -0.000000 -0.010376, 0.027692 0.000000 0.010376, 0.027811 -0.007771 -0.009192,
 0.027811 -0.007771 0.009192, 0.027811 0.007771 -0.009192, 0.027811 0.007771 0.009192, 0.027930 -0.007804 -0.008500, 0.027930 -0.007804 0.008500,
 0.027930 0.007804 -0.008500, 0.027930 0.007804 0.008500, 0.028306 -0.005066 -0.008500, 0.028306 -0.005066 0.008500, 0.028306 0.005066 -0.008500,
 0.028306 0.005066 0.008500, 0.028414 -0.000000 -0.009914, 0.028414 0.000000 0.009914, 0.028876 -0.000000 -0.009192, 0.028876 0.000000 0.009192,
 0.029000 -0.000000 -0.008500, 0.029000 0.000000 0.008500
]
}
IndexedFaceSet {
coordIndex [
 353, 163, 193, -1, 163, 353, 192, -1, 192, 353, 342, -1,
 192, 342, 238, -1, 238, 342, 328, -1, 238, 328, 298, -1,
 331, 343, 303, -1, 303, 343, 353, -1, 303, 353, 241, -1,
 241, 353, 193, -1, 327, 341, 352, -1, 234, 190, 288, -1,
 288, 190, 156, -1, 288, 156, 324, -1, 324, 156, 352, -1,
 324, 352, 340, -1, 293, 327, 237, -1, 237, 327, 352, -1,
 237, 352, 191, -1, 191, 352, 156, -1, 407, 404, 405, -1,
 405, 404, 408, -1, 405, 408, 409, -1, 409, 408, 483, -1,
 409, 483, 484, -1, 484, 483, 518, -1, 484, 518, 519, -1,
 519, 518, 549, -1, 519, 549, 550, -1, 550, 549, 567, -1,
 550, 567, 568, -1, 568, 567, 573, -1, 568, 573, 574, -1,
 574, 573, 565, -1, 574, 565, 566, -1, 566, 565, 547, -1,
 566, 547, 548, -1, 548, 547, 516, -1, 548, 516, 517, -1,
 517, 516, 481, -1, 517, 481, 482, -1, 482, 481, 406, -1,
 482, 406, 407, -1, 407, 406, 404, -1, 350, 343, 338, -1,
 338, 343, 331, -1, 338, 331, 304, -1, 304, 331, 303, -1,
 304, 303, 232, -1, 232, 303, 241, -1, 232, 241, 184, -1,
 184, 241, 193, -1, 184, 193, 136, -1, 136, 193, 163, -1,
 136, 163, 182, -1, 182, 163, 192, -1, 182, 192, 230, -1,
 230, 192, 238, -1, 230, 238, 296, -1, 296, 238, 298, -1,
 296, 298, 336, -1, 336, 298, 328, -1, 336, 328, 348, -1,
 348, 328, 342, -1, 348, 342, 356, -1, 356, 342, 353, -1,
 356, 353, 350, -1, 350, 353, 343, -1, 549, 555, 567, -1,
 567, 555, 587, -1, 567, 587, 573, -1, 573, 587, 600, -1,
 573, 600, 565, -1, 565, 600, 583, -1, 565, 583, 547, -1,
 547, 583, 551, -1, 547, 551, 516, -1, 516, 551, 512, -1,
 516, 512, 481, -1, 481, 512, 473, -1, 481, 473, 406, -1,
 406, 473, 396, -1, 406, 396, 404, -1, 404, 396, 392, -1,
 404, 392, 408, -1, 408, 392, 400, -1, 408, 400, 483, -1,
 483, 400, 477, -1, 483, 477, 518, -1, 518, 477, 520, -1,
 518, 520, 549, -1, 549, 520, 555, -1, 346, 341, 334, -1,
 334, 341, 327, -1, 334, 327, 294, -1, 294, 327, 293, -1,
 294, 293, 228, -1, 228, 293, 237, -1, 228, 237, 180, -1,
 180, 237, 191, -1, 180, 191, 134, -1, 134, 191, 156, -1,
 134, 156, 178, -1, 178, 156, 190, -1, 178, 190, 226, -1,
 226, 190, 234, -1, 226, 234, 286, -1, 286, 234, 288, -1,
 286, 288, 332, -1, 332, 288, 324, -1, 332, 324, 344, -1,
 344, 324, 340, -1, 344, 340, 354, -1, 354, 340, 352, -1,
 354, 352, 346, -1, 346, 352, 341, -1, 314, 264, 287, -1,
 287, 264, 252, -1, 287, 252, 242, -1, 409, 403, 405, -1,
 405, 403, 395, -1, 405, 395, 407, -1, 407, 395, 399, -1,
 407, 399, 482, -1, 482, 399, 476, -1, 482, 476, 517, -1,
 517, 476, 515, -1, 517, 515, 548, -1, 548, 515, 554, -1,
 548, 554, 566, -1, 566, 554, 586, -1, 566, 586, 574, -1,
 574, 586, 603, -1, 574, 603, 568, -1, 568, 603, 590, -1,
 568, 590, 550, -1, 550, 590, 558, -1, 550, 558, 519, -1,
 519, 558, 523, -1, 519, 523, 484, -1, 484, 523, 480, -1,
 484, 480, 409, -1, 409, 480, 403, -1, 243, 253, 305, -1,
 305, 253, 266, -1, 305, 266, 315, -1, 169, 176, 185, -1,
 185, 176, 204, -1, 185, 204, 233, -1, 233, 204, 224, -1,
 233, 224, 243, -1, 388, 390, 386, -1, 169, 184, 136, -1,
 169, 185, 184, -1, 184, 185, 233, -1, 184, 233, 232, -1,
 232, 233, 243, -1, 232, 243, 304, -1, 243, 305, 304, -1,
 304, 305, 315, -1, 304, 315, 338, -1, 315, 339, 338, -1,
 338, 339, 351, -1, 338, 351, 350, -1, 350, 351, 357, -1,
 350, 357, 356, -1, 356, 357, 349, -1, 356, 349, 348, -1,
 348, 349, 337, -1, 348, 337, 336, -1, 336, 337, 297, -1,
 336, 297, 296, -1, 296, 297, 231, -1, 296, 231, 230, -1,
 230, 231, 183, -1, 230, 183, 182, -1, 182, 183, 162, -1,
 182, 162, 136, -1, 136, 162, 137, -1, 136, 137, 169, -1,
 447, 444, 466, -1, 431, 436, 464, -1, 436, 438, 464, -1,
 464, 438, 440, -1, 464, 440, 448, -1, 421, 420, 460, -1,
 460, 420, 426, -1, 460, 426, 430, -1, 452, 410, 414, -1,
 414, 456, 452, -1, 452, 456, 491, -1, 452, 491, 487, -1,
 487, 491, 508, -1, 508, 491, 539, -1, 508, 539, 543, -1,
 543, 539, 560, -1, 560, 539, 591, -1, 560, 591, 595, -1,
 595, 591, 606, -1, 606, 591, 623, -1, 606, 623, 627, -1,
 627, 623, 647, -1, 627, 647, 651, -1, 651, 647, 655, -1,
 655, 647, 679, -1, 655, 679, 683, -1, 683, 679, 687, -1,
 687, 679, 693, -1, 687, 693, 695, -1, 695, 693, 689, -1,
 689, 693, 681, -1, 689, 681, 685, -1, 685, 681, 657, -1,
 657, 681, 649, -1, 657, 649, 653, -1, 653, 649, 625, -1,
 653, 625, 629, -1, 629, 625, 608, -1, 608, 625, 593, -1,
 608, 593, 597, -1, 597, 593, 562, -1, 562, 593, 541, -1,
 562, 541, 545, -1, 545, 541, 510, -1, 510, 541, 493, -1,
 510, 493, 489, -1, 489, 493, 458, -1, 489, 458, 454, -1,
 429, 425, 458, -1, 412, 454, 419, -1, 419, 454, 458, -1,
 419, 458, 418, -1, 418, 458, 425, -1, 445, 435, 462, -1,
 450, 447, 471, -1, 471, 447, 466, -1, 471, 466, 485, -1,
 485, 466, 501, -1, 485, 501, 506, -1, 532, 525, 501, -1,
 501, 525, 507, -1, 501, 507, 506, -1, 599, 570, 577, -1,
 577, 570, 559, -1, 577, 559, 532, -1, 532, 559, 526, -1,
 532, 526, 525, -1, 599, 577, 605, -1, 605, 577, 617, -1,
 605, 617, 610, -1, 610, 617, 631, -1, 631, 617, 639, -1,
 631, 639, 634, -1, 667, 659, 639, -1, 639, 659, 641, -1,
 639, 641, 634, -1, 671, 670, 677, -1, 677, 670, 669, -1,
 677, 669, 667, -1, 667, 669, 660, -1, 667, 660, 659, -1,
 671, 677, 664, -1, 664, 677, 665, -1, 664, 665, 661, -1,
 661, 665, 646, -1, 646, 665, 637, -1, 646, 637, 633, -1,
 615, 614, 637, -1, 637, 614, 632, -1, 637, 632, 633, -1,
 564, 569, 575, -1, 575, 569, 604, -1, 575, 604, 615, -1,
 615, 604, 611, -1, 615, 611, 614, -1, 564, 575, 538, -1,
 538, 575, 530, -1, 538, 530, 527, -1, 527, 530, 524, -1,
 524, 530, 499, -1, 524, 499, 505, -1, 448, 470, 464, -1,
 464, 470, 472, -1, 464, 472, 499, -1, 499, 472, 486, -1,
 499, 486, 505, -1, 435, 429, 462, -1, 462, 429, 458, -1,
 462, 458, 497, -1, 497, 458, 493, -1, 497, 493, 536, -1,
 536, 493, 541, -1, 536, 541, 581, -1, 581, 541, 593, -1,
 581, 593, 621, -1, 621, 593, 625, -1, 621, 625, 644, -1,
 644, 625, 649, -1, 644, 649, 675, -1, 675, 649, 681, -1,
 675, 681, 691, -1, 691, 681, 693, -1, 691, 693, 673, -1,
 673, 693, 679, -1, 673, 679, 642, -1, 642, 679, 647, -1,
 642, 647, 619, -1, 619, 647, 623, -1, 619, 623, 579, -1,
 579, 623, 591, -1, 579, 591, 534, -1, 534, 591, 539, -1,
 534, 539, 495, -1, 495, 539, 491, -1, 495, 491, 460, -1,
 460, 491, 456, -1, 460, 456, 421, -1, 421, 456, 414, -1,
 444, 445, 466, -1, 466, 445, 462, -1, 466, 462, 501, -1,
 501, 462, 497, -1, 501, 497, 532, -1, 532, 497, 536, -1,
 532, 536, 577, -1, 577, 536, 581, -1, 577, 581, 617, -1,
 617, 581, 621, -1, 617, 621, 639, -1, 639, 621, 644, -1,
 639, 644, 667, -1, 667, 644, 675, -1, 667, 675, 677, -1,
 677, 675, 691, -1, 677, 691, 665, -1, 665, 691, 673, -1,
 665, 673, 637, -1, 637, 673, 642, -1, 637, 642, 615, -1,
 615, 642, 619, -1, 615, 619, 575, -1, 575, 619, 579, -1,
 575, 579, 530, -1, 530, 579, 534, -1, 530, 534, 499, -1,
 499, 534, 495, -1, 499, 495, 464, -1, 464, 495, 460, -1,
 464, 460, 431, -1, 431, 460, 430, -1, 587, 601, 600, -1,
 600, 601, 584, -1, 600, 584, 583, -1, 583, 584, 552, -1,
 583, 552, 551, -1, 551, 552, 513, -1, 551, 513, 512, -1,
 512, 513, 474, -1, 512, 474, 473, -1, 473, 474, 397, -1,
 473, 397, 396, -1, 396, 397, 393, -1, 396, 393, 392, -1,
 392, 393, 401, -1, 392, 401, 400, -1, 400, 401, 478, -1,
 400, 478, 477, -1, 477, 478, 521, -1, 477, 521, 520, -1,
 520, 521, 556, -1, 520, 556, 555, -1, 555, 556, 588, -1,
 555, 588, 587, -1, 587, 588, 601, -1, 242, 226, 286, -1,
 242, 227, 226, -1, 226, 227, 179, -1, 226, 179, 178, -1,
 178, 179, 168, -1, 178, 168, 134, -1, 168, 135, 134, -1,
 134, 135, 157, -1, 134, 157, 180, -1, 157, 181, 180, -1,
 180, 181, 229, -1, 180, 229, 228, -1, 228, 229, 295, -1,
 228, 295, 294, -1, 294, 295, 335, -1, 294, 335, 334, -1,
 334, 335, 347, -1, 334, 347, 346, -1, 346, 347, 355, -1,
 346, 355, 354, -1, 354, 355, 345, -1, 354, 345, 344, -1,
 344, 345, 333, -1, 344, 333, 332, -1, 332, 333, 314, -1,
 332, 314, 286, -1, 286, 314, 287, -1, 286, 287, 242, -1,
 242, 222, 227, -1, 227, 222, 202, -1, 227, 202, 179, -1,
 179, 202, 174, -1, 179, 174, 168, -1, 438, 314, 440, -1,
 440, 314, 448, -1, 410, 254, 414, -1, 414, 254, 258, -1,
 414, 258, 421, -1, 431, 430, 260, -1, 260, 430, 426, -1,
 260, 426, 258, -1, 258, 426, 420, -1, 258, 420, 421, -1,
 264, 314, 262, -1, 262, 314, 438, -1, 262, 438, 260, -1,
 260, 438, 436, -1, 260, 436, 431, -1, 455, 459, 494, -1,
 446, 443, 465, -1, 442, 434, 461, -1, 428, 424, 457, -1,
 424, 417, 457, -1, 457, 417, 416, -1, 457, 416, 411, -1,
 468, 449, 446, -1, 446, 465, 468, -1, 468, 465, 500, -1,
 468, 500, 503, -1, 503, 500, 531, -1, 503, 531, 528, -1,
 528, 531, 576, -1, 528, 576, 571, -1, 571, 576, 616, -1,
 571, 616, 612, -1, 612, 616, 638, -1, 612, 638, 635, -1,
 635, 638, 666, -1, 635, 666, 662, -1, 662, 666, 678, -1,
 662, 678, 672, -1, 672, 678, 668, -1, 672, 668, 663, -1,
 663, 668, 640, -1, 663, 640, 636, -1, 636, 640, 618, -1,
 636, 618, 613, -1, 613, 618, 578, -1, 613, 578, 572, -1,
 572, 578, 533, -1, 572, 533, 529, -1, 529, 533, 502, -1,
 529, 502, 504, -1, 504, 502, 467, -1, 504, 467, 469, -1,
 432, 437, 467, -1, 451, 469, 441, -1, 441, 469, 467, -1,
 441, 467, 439, -1, 439, 467, 437, -1, 423, 427, 463, -1,
 463, 427, 433, -1, 422, 459, 415, -1, 415, 459, 455, -1,
 415, 455, 413, -1, 542, 511, 494, -1, 494, 511, 490, -1,
 494, 490, 455, -1, 594, 563, 542, -1, 542, 563, 546, -1,
 542, 546, 511, -1, 650, 630, 626, -1, 626, 630, 609, -1,
 626, 609, 594, -1, 594, 609, 598, -1, 594, 598, 563, -1,
 682, 658, 650, -1, 650, 658, 654, -1, 650, 654, 630, -1,
 694, 690, 682, -1, 682, 690, 686, -1, 682, 686, 658, -1,
 680, 688, 694, -1, 694, 688, 696, -1, 694, 696, 690, -1,
 624, 652, 648, -1, 648, 652, 656, -1, 648, 656, 680, -1,
 680, 656, 684, -1, 680, 684, 688, -1, 592, 607, 624, -1,
 624, 607, 628, -1, 624, 628, 652, -1, 540, 561, 592, -1,
 592, 561, 596, -1, 592, 596, 607, -1, 411, 453, 457, -1,
 457, 453, 488, -1, 457, 488, 492, -1, 492, 488, 509, -1,
 492, 509, 540, -1, 540, 509, 544, -1, 540, 544, 561, -1,
 433, 432, 463, -1, 463, 432, 467, -1, 463, 467, 498, -1,
 498, 467, 502, -1, 498, 502, 537, -1, 537, 502, 533, -1,
 537, 533, 582, -1, 582, 533, 578, -1, 582, 578, 622, -1,
 622, 578, 618, -1, 622, 618, 645, -1, 645, 618, 640, -1,
 645, 640, 676, -1, 676, 640, 668, -1, 676, 668, 692, -1,
 692, 668, 678, -1, 692, 678, 674, -1, 674, 678, 666, -1,
 674, 666, 643, -1, 643, 666, 638, -1, 643, 638, 620, -1,
 620, 638, 616, -1, 620, 616, 580, -1, 580, 616, 576, -1,
 580, 576, 535, -1, 535, 576, 531, -1, 535, 531, 496, -1,
 496, 531, 500, -1, 496, 500, 461, -1, 461, 500, 465, -1,
 461, 465, 442, -1, 442, 465, 443, -1, 422, 423, 459, -1,
 459, 423, 463, -1, 459, 463, 494, -1, 494, 463, 498, -1,
 494, 498, 542, -1, 542, 498, 537, -1, 542, 537, 594, -1,
 594, 537, 582, -1, 594, 582, 626, -1, 626, 582, 622, -1,
 626, 622, 650, -1, 650, 622, 645, -1, 650, 645, 682, -1,
 682, 645, 676, -1, 682, 676, 694, -1, 694, 676, 692, -1,
 694, 692, 680, -1, 680, 692, 674, -1, 680, 674, 648, -1,
 648, 674, 643, -1, 648, 643, 624, -1, 624, 643, 620, -1,
 624, 620, 592, -1, 592, 620, 580, -1, 592, 580, 540, -1,
 540, 580, 535, -1, 540, 535, 492, -1, 492, 535, 496, -1,
 492, 496, 457, -1, 457, 496, 461, -1, 457, 461, 428, -1,
 428, 461, 434, -1, 446, 449, 265, -1, 257, 411, 416, -1,
 446, 265, 443, -1, 443, 265, 263, -1, 443, 263, 442, -1,
 261, 428, 263, -1, 263, 428, 434, -1, 263, 434, 442, -1,
 257, 416, 259, -1, 259, 416, 417, -1, 259, 417, 261, -1,
 261, 417, 424, -1, 261, 424, 428, -1, 389, 387, 391, -1,
 589, 603, 602, -1, 602, 603, 586, -1, 602, 586, 585, -1,
 585, 586, 554, -1, 585, 554, 553, -1, 553, 554, 515, -1,
 553, 515, 514, -1, 514, 515, 476, -1, 514, 476, 475, -1,
 475, 476, 399, -1, 475, 399, 398, -1, 398, 399, 395, -1,
 398, 395, 394, -1, 394, 395, 403, -1, 394, 403, 402, -1,
 402, 403, 480, -1, 402, 480, 479, -1, 479, 480, 523, -1,
 479, 523, 522, -1, 522, 523, 558, -1, 522, 558, 557, -1,
 557, 558, 590, -1, 557, 590, 589, -1, 589, 590, 603, -1,
 413, 277, 415, -1, 415, 277, 273, -1, 415, 273, 422, -1,
 271, 427, 273, -1, 273, 427, 423, -1, 273, 423, 422, -1,
 437, 432, 271, -1, 271, 432, 433, -1, 271, 433, 427, -1,
 437, 271, 439, -1, 439, 271, 269, -1, 439, 269, 441, -1,
 441, 269, 267, -1, 441, 267, 451, -1, 411, 410, 453, -1,
 453, 410, 452, -1, 453, 452, 488, -1, 488, 452, 487, -1,
 488, 487, 509, -1, 509, 487, 508, -1, 509, 508, 544, -1,
 544, 508, 543, -1, 544, 543, 561, -1, 561, 543, 560, -1,
 561, 560, 596, -1, 596, 560, 595, -1, 596, 595, 607, -1,
 607, 595, 606, -1, 607, 606, 628, -1, 628, 606, 627, -1,
 628, 627, 652, -1, 652, 627, 651, -1, 652, 651, 656, -1,
 656, 651, 655, -1, 656, 655, 684, -1, 684, 655, 683, -1,
 684, 683, 688, -1, 688, 683, 687, -1, 688, 687, 696, -1,
 696, 687, 695, -1, 696, 695, 690, -1, 690, 695, 689, -1,
 690, 689, 686, -1, 686, 689, 685, -1, 686, 685, 658, -1,
 658, 685, 657, -1, 658, 657, 654, -1, 654, 657, 653, -1,
 654, 653, 630, -1, 630, 653, 629, -1, 630, 629, 609, -1,
 609, 629, 608, -1, 609, 608, 598, -1, 598, 608, 597, -1,
 598, 597, 563, -1, 563, 597, 562, -1, 563, 562, 546, -1,
 546, 562, 545, -1, 546, 545, 511, -1, 511, 545, 510, -1,
 511, 510, 490, -1, 490, 510, 489, -1, 490, 489, 455, -1,
 455, 489, 454, -1, 455, 454, 413, -1, 413, 454, 412, -1,
 425, 429, 270, -1, 270, 429, 268, -1, 429, 435, 268, -1,
 268, 435, 445, -1, 268, 445, 266, -1, 266, 445, 444, -1,
 266, 444, 315, -1, 315, 444, 447, -1, 315, 447, 450, -1,
 425, 270, 418, -1, 418, 270, 272, -1, 418, 272, 419, -1,
 419, 272, 274, -1, 419, 274, 412, -1, 167, 164, 132, -1,
 200, 208, 212, -1, 268, 220, 216, -1, 268, 216, 270, -1,
 270, 216, 212, -1, 270, 212, 272, -1, 272, 212, 208, -1,
 272, 208, 274, -1, 112, 148, 152, -1, 152, 148, 200, -1,
 92, 88, 112, -1, 66, 88, 72, -1, 72, 88, 92, -1,
 72, 92, 80, -1, 80, 92, 116, -1, 80, 116, 96, -1,
 96, 116, 128, -1, 128, 116, 140, -1, 128, 140, 132, -1,
 266, 253, 268, -1, 268, 253, 243, -1, 268, 243, 220, -1,
 220, 243, 224, -1, 220, 224, 204, -1, 200, 212, 152, -1,
 152, 212, 216, -1, 152, 216, 172, -1, 172, 216, 220, -1,
 172, 220, 188, -1, 188, 220, 204, -1, 188, 204, 176, -1,
 112, 152, 92, -1, 92, 152, 172, -1, 92, 172, 116, -1,
 116, 172, 188, -1, 116, 188, 140, -1, 140, 188, 176, -1,
 140, 176, 132, -1, 132, 176, 169, -1, 132, 169, 167, -1,
 162, 164, 137, -1, 137, 164, 167, -1, 137, 167, 169, -1,
 376, 380, 384, -1, 374, 376, 372, -1, 372, 376, 384, -1,
 372, 384, 370, -1, 370, 384, 390, -1, 370, 390, 368, -1,
 390, 388, 368, -1, 368, 388, 386, -1, 368, 386, 366, -1,
 366, 386, 382, -1, 366, 382, 364, -1, 364, 382, 378, -1,
 364, 378, 362, -1, 448, 314, 333, -1, 157, 158, 181, -1,
 181, 158, 229, -1, 374, 160, 297, -1, 315, 450, 339, -1,
 339, 450, 351, -1, 333, 345, 448, -1, 448, 345, 355, -1,
 448, 355, 362, -1, 355, 347, 362, -1, 362, 347, 335, -1,
 362, 335, 158, -1, 158, 335, 295, -1, 158, 295, 229, -1,
 162, 183, 160, -1, 160, 183, 231, -1, 160, 231, 297, -1,
 297, 337, 374, -1, 374, 337, 349, -1, 374, 349, 450, -1,
 450, 349, 357, -1, 450, 357, 351, -1, 671, 664, 670, -1,
 670, 664, 601, -1, 670, 601, 669, -1, 669, 601, 588, -1,
 669, 588, 660, -1, 660, 588, 641, -1, 660, 641, 659, -1,
 556, 599, 605, -1, 513, 524, 505, -1, 605, 610, 556, -1,
 556, 610, 631, -1, 556, 631, 588, -1, 588, 631, 634, -1,
 588, 634, 641, -1, 599, 556, 570, -1, 570, 556, 521, -1,
 570, 521, 559, -1, 507, 525, 526, -1, 378, 382, 393, -1,
 393, 382, 386, -1, 393, 386, 401, -1, 378, 393, 362, -1,
 362, 393, 397, -1, 362, 397, 448, -1, 448, 397, 474, -1,
 448, 474, 470, -1, 470, 474, 513, -1, 470, 513, 472, -1,
 472, 513, 505, -1, 472, 505, 486, -1, 526, 559, 507, -1,
 507, 559, 521, -1, 507, 521, 506, -1, 506, 521, 478, -1,
 506, 478, 485, -1, 485, 478, 471, -1, 386, 390, 401, -1,
 401, 390, 384, -1, 401, 384, 380, -1, 380, 376, 401, -1,
 401, 376, 374, -1, 401, 374, 478, -1, 478, 374, 450, -1,
 478, 450, 471, -1, 524, 513, 527, -1, 527, 513, 552, -1,
 527, 552, 538, -1, 632, 614, 633, -1, 633, 614, 584, -1,
 633, 584, 646, -1, 646, 584, 601, -1, 646, 601, 661, -1,
 661, 601, 664, -1, 564, 538, 569, -1, 569, 538, 552, -1,
 569, 552, 604, -1, 604, 552, 584, -1, 604, 584, 611, -1,
 611, 584, 614, -1, 168, 166, 135, -1, 135, 166, 154, -1,
 135, 154, 157, -1, 110, 86, 90, -1, 252, 264, 262, -1,
 168, 174, 138, -1, 138, 174, 202, -1, 130, 154, 166, -1,
 166, 168, 130, -1, 130, 168, 138, -1, 130, 138, 126, -1,
 126, 138, 114, -1, 126, 114, 94, -1, 94, 114, 78, -1,
 78, 114, 90, -1, 78, 90, 70, -1, 70, 90, 86, -1,
 70, 86, 36, -1, 198, 146, 150, -1, 150, 146, 110, -1,
 210, 206, 198, -1, 258, 254, 206, -1, 206, 210, 258, -1,
 258, 210, 214, -1, 258, 214, 260, -1, 260, 214, 218, -1,
 260, 218, 262, -1, 110, 90, 150, -1, 150, 90, 114, -1,
 150, 114, 170, -1, 170, 114, 138, -1, 170, 138, 186, -1,
 186, 138, 202, -1, 186, 202, 222, -1, 198, 150, 210, -1,
 210, 150, 170, -1, 210, 170, 214, -1, 214, 170, 186, -1,
 214, 186, 218, -1, 218, 186, 222, -1, 218, 222, 262, -1,
 262, 222, 242, -1, 262, 242, 252, -1, 251, 239, 240, -1,
 240, 239, 248, -1, 240, 248, 249, -1, 249, 248, 282, -1,
 249, 282, 283, -1, 283, 282, 299, -1, 283, 299, 300, -1,
 300, 299, 310, -1, 300, 310, 311, -1, 311, 310, 320, -1,
 311, 320, 321, -1, 321, 320, 329, -1, 321, 329, 330, -1,
 330, 329, 322, -1, 330, 322, 323, -1, 323, 322, 312, -1,
 323, 312, 313, -1, 313, 312, 301, -1, 313, 301, 302, -1,
 302, 301, 284, -1, 302, 284, 285, -1, 285, 284, 250, -1,
 285, 250, 251, -1, 251, 250, 239, -1, 358, 359, 360, -1,
 360, 359, 361, -1, 64, 42, 65, -1, 65, 42, 40, -1,
 65, 40, 63, -1, 63, 40, 41, -1, 247, 235, 236, -1,
 236, 235, 244, -1, 236, 244, 245, -1, 245, 244, 278, -1,
 245, 278, 279, -1, 279, 278, 289, -1, 279, 289, 290, -1,
 290, 289, 306, -1, 290, 306, 307, -1, 307, 306, 316, -1,
 307, 316, 317, -1, 317, 316, 325, -1, 317, 325, 326, -1,
 326, 325, 318, -1, 326, 318, 319, -1, 319, 318, 308, -1,
 319, 308, 309, -1, 309, 308, 291, -1, 309, 291, 292, -1,
 292, 291, 280, -1, 292, 280, 281, -1, 281, 280, 246, -1,
 281, 246, 247, -1, 247, 246, 235, -1, 255, 254, 358, -1,
 358, 254, 410, -1, 358, 410, 359, -1, 359, 410, 411, -1,
 359, 411, 256, -1, 256, 411, 257, -1, 127, 95, 115, -1,
 79, 71, 91, -1, 155, 131, 139, -1, 155, 139, 175, -1,
 175, 139, 187, -1, 175, 187, 203, -1, 203, 187, 219, -1,
 203, 219, 223, -1, 223, 219, 263, -1, 223, 263, 265, -1,
 257, 259, 207, -1, 207, 259, 211, -1, 207, 211, 199, -1,
 199, 211, 151, -1, 199, 151, 147, -1, 147, 151, 111, -1,
 111, 151, 91, -1, 111, 91, 87, -1, 87, 91, 71, -1,
 87, 71, 39, -1, 261, 263, 215, -1, 215, 263, 219, -1,
 215, 219, 171, -1, 171, 219, 187, -1, 171, 187, 115, -1,
 115, 187, 139, -1, 115, 139, 127, -1, 127, 139, 131, -1,
 259, 261, 211, -1, 211, 261, 215, -1, 211, 215, 151, -1,
 151, 215, 171, -1, 151, 171, 91, -1, 91, 171, 115, -1,
 91, 115, 79, -1, 79, 115, 95, -1, 363, 379, 365, -1,
 365, 379, 383, -1, 365, 383, 367, -1, 367, 383, 387, -1,
 367, 387, 369, -1, 377, 375, 381, -1, 381, 375, 373, -1,
 381, 373, 385, -1, 385, 373, 371, -1, 385, 371, 391, -1,
 391, 371, 369, -1, 391, 369, 389, -1, 389, 369, 387, -1,
 203, 223, 175, -1, 175, 223, 265, -1, 175, 265, 155, -1,
 155, 265, 449, -1, 155, 449, 159, -1, 585, 635, 662, -1,
 475, 398, 363, -1, 585, 662, 602, -1, 662, 672, 602, -1,
 602, 672, 663, -1, 602, 663, 589, -1, 635, 585, 612, -1,
 612, 585, 553, -1, 612, 553, 571, -1, 663, 636, 589, -1,
 589, 636, 613, -1, 589, 613, 557, -1, 571, 553, 528, -1,
 528, 553, 514, -1, 528, 514, 503, -1, 503, 514, 468, -1,
 468, 514, 475, -1, 468, 475, 449, -1, 449, 475, 363, -1,
 449, 363, 159, -1, 613, 572, 557, -1, 557, 572, 529, -1,
 557, 529, 522, -1, 394, 383, 398, -1, 398, 383, 379, -1,
 398, 379, 363, -1, 529, 504, 522, -1, 522, 504, 469, -1,
 522, 469, 479, -1, 479, 469, 451, -1, 479, 451, 402, -1,
 205, 177, 225, -1, 225, 177, 165, -1, 225, 165, 267, -1,
 267, 165, 161, -1, 267, 161, 451, -1, 451, 161, 375, -1,
 451, 375, 402, -1, 402, 375, 377, -1, 402, 377, 381, -1,
 381, 385, 402, -1, 402, 385, 391, -1, 402, 391, 394, -1,
 394, 391, 387, -1, 394, 387, 383, -1, 81, 97, 117, -1,
 129, 133, 141, -1, 73, 93, 69, -1, 69, 93, 89, -1,
 89, 93, 113, -1, 113, 93, 153, -1, 113, 153, 149, -1,
 149, 153, 201, -1, 201, 153, 213, -1, 201, 213, 209, -1,
 209, 213, 273, -1, 209, 273, 277, -1, 225, 267, 269, -1,
 269, 221, 225, -1, 225, 221, 189, -1, 225, 189, 205, -1,
 205, 189, 141, -1, 205, 141, 177, -1, 177, 141, 133, -1,
 177, 133, 165, -1, 97, 129, 117, -1, 117, 129, 141, -1,
 117, 141, 173, -1, 173, 141, 189, -1, 173, 189, 217, -1,
 217, 189, 221, -1, 217, 221, 271, -1, 271, 221, 269, -1,
 73, 81, 93, -1, 93, 81, 117, -1, 93, 117, 153, -1,
 153, 117, 173, -1, 153, 173, 213, -1, 213, 173, 217, -1,
 213, 217, 273, -1, 273, 217, 271, -1, 276, 277, 361, -1,
 361, 277, 413, -1, 361, 413, 360, -1, 360, 413, 412, -1,
 360, 412, 275, -1, 275, 412, 274, -1, 316, 306, 358, -1,
 358, 306, 255, -1, 255, 306, 289, -1, 255, 289, 194, -1,
 194, 289, 278, -1, 194, 278, 106, -1, 106, 278, 244, -1,
 106, 244, 37, -1, 37, 244, 235, -1, 37, 235, 41, -1,
 312, 360, 301, -1, 301, 360, 275, -1, 301, 275, 284, -1,
 284, 275, 196, -1, 284, 196, 250, -1, 250, 196, 108, -1,
 250, 108, 239, -1, 239, 108, 67, -1, 239, 67, 248, -1,
 248, 67, 63, -1, 248, 63, 282, -1, 282, 63, 41, -1,
 282, 41, 299, -1, 299, 41, 235, -1, 299, 235, 246, -1,
 246, 280, 299, -1, 299, 280, 291, -1, 299, 291, 310, -1,
 310, 291, 308, -1, 310, 308, 320, -1, 312, 322, 360, -1,
 360, 322, 329, -1, 360, 329, 320, -1, 320, 308, 360, -1,
 360, 308, 318, -1, 360, 318, 358, -1, 358, 318, 325, -1,
 358, 325, 316, -1, 66, 67, 88, -1, 88, 67, 108, -1,
 88, 108, 112, -1, 112, 108, 148, -1, 148, 108, 196, -1,
 148, 196, 200, -1, 200, 196, 208, -1, 208, 196, 275, -1,
 208, 275, 274, -1, 96, 84, 80, -1, 80, 84, 76, -1,
 80, 76, 72, -1, 72, 76, 59, -1, 72, 59, 66, -1,
 124, 120, 128, -1, 128, 120, 104, -1, 128, 104, 96, -1,
 96, 104, 100, -1, 96, 100, 84, -1, 132, 164, 162, -1,
 160, 144, 162, -1, 162, 144, 124, -1, 162, 124, 132, -1,
 132, 124, 128, -1, 49, 364, 362, -1, 362, 158, 49, -1,
 49, 158, 142, -1, 49, 142, 122, -1, 122, 118, 49, -1,
 49, 118, 102, -1, 49, 102, 98, -1, 98, 82, 49, -1,
 49, 82, 74, -1, 49, 74, 45, -1, 59, 76, 55, -1,
 55, 76, 84, -1, 84, 100, 55, -1, 55, 100, 104, -1,
 55, 104, 120, -1, 120, 124, 55, -1, 55, 124, 144, -1,
 55, 144, 160, -1, 364, 49, 366, -1, 366, 49, 51, -1,
 366, 51, 368, -1, 368, 51, 370, -1, 370, 51, 55, -1,
 370, 55, 372, -1, 372, 55, 160, -1, 372, 160, 374, -1,
 158, 157, 142, -1, 142, 157, 122, -1, 154, 130, 157, -1,
 157, 130, 126, -1, 157, 126, 122, -1, 36, 45, 70, -1,
 70, 45, 74, -1, 70, 74, 78, -1, 78, 74, 82, -1,
 78, 82, 94, -1, 94, 82, 98, -1, 94, 98, 126, -1,
 126, 98, 102, -1, 126, 102, 122, -1, 122, 102, 118, -1,
 36, 86, 37, -1, 37, 86, 106, -1, 86, 110, 106, -1,
 106, 110, 146, -1, 106, 146, 194, -1, 254, 255, 206, -1,
 206, 255, 194, -1, 206, 194, 198, -1, 198, 194, 146, -1,
 307, 317, 359, -1, 359, 317, 326, -1, 359, 326, 361, -1,
 361, 326, 319, -1, 361, 319, 309, -1, 249, 283, 292, -1,
 292, 283, 300, -1, 292, 300, 309, -1, 309, 300, 311, -1,
 309, 311, 361, -1, 361, 311, 321, -1, 361, 321, 330, -1,
 330, 323, 361, -1, 361, 323, 313, -1, 361, 313, 276, -1,
 276, 313, 302, -1, 276, 302, 197, -1, 197, 302, 285, -1,
 197, 285, 109, -1, 109, 285, 251, -1, 109, 251, 68, -1,
 68, 251, 240, -1, 68, 240, 64, -1, 307, 359, 290, -1,
 290, 359, 256, -1, 290, 256, 279, -1, 279, 256, 195, -1,
 279, 195, 245, -1, 245, 195, 107, -1, 245, 107, 236, -1,
 236, 107, 38, -1, 236, 38, 247, -1, 247, 38, 42, -1,
 247, 42, 281, -1, 281, 42, 64, -1, 281, 64, 292, -1,
 292, 64, 240, -1, 292, 240, 249, -1, 39, 38, 87, -1,
 87, 38, 107, -1, 87, 107, 111, -1, 111, 107, 147, -1,
 147, 107, 195, -1, 147, 195, 199, -1, 199, 195, 207, -1,
 207, 195, 256, -1, 207, 256, 257, -1, 46, 39, 71, -1,
 46, 71, 75, -1, 75, 71, 79, -1, 75, 79, 83, -1,
 83, 79, 95, -1, 83, 95, 99, -1, 99, 95, 103, -1,
 103, 95, 127, -1, 103, 127, 119, -1, 119, 127, 123, -1,
 123, 127, 131, -1, 123, 131, 143, -1, 143, 131, 155, -1,
 143, 155, 159, -1, 56, 373, 375, -1, 375, 161, 56, -1,
 56, 161, 145, -1, 56, 145, 125, -1, 125, 121, 56, -1,
 56, 121, 105, -1, 56, 105, 101, -1, 101, 85, 56, -1,
 56, 85, 77, -1, 56, 77, 60, -1, 46, 75, 50, -1,
 50, 75, 83, -1, 83, 99, 50, -1, 50, 99, 103, -1,
 50, 103, 119, -1, 119, 123, 50, -1, 50, 123, 143, -1,
 50, 143, 159, -1, 373, 56, 371, -1, 371, 56, 54, -1,
 371, 54, 369, -1, 369, 54, 367, -1, 367, 54, 50, -1,
 367, 50, 365, -1, 365, 50, 159, -1, 365, 159, 363, -1,
 129, 125, 133, -1, 133, 125, 145, -1, 133, 145, 165, -1,
 165, 145, 161, -1, 69, 60, 73, -1, 73, 60, 77, -1,
 73, 77, 81, -1, 81, 77, 85, -1, 81, 85, 97, -1,
 97, 85, 101, -1, 97, 101, 129, -1, 129, 101, 105, -1,
 129, 105, 125, -1, 125, 105, 121, -1, 69, 89, 68, -1,
 68, 89, 109, -1, 89, 113, 109, -1, 109, 113, 149, -1,
 109, 149, 197, -1, 277, 276, 209, -1, 209, 276, 197, -1,
 209, 197, 201, -1, 201, 197, 149, -1, 67, 66, 59, -1,
 37, 41, 36, -1, 36, 41, 43, -1, 63, 67, 61, -1,
 61, 67, 59, -1, 61, 59, 57, -1, 57, 59, 55, -1,
 57, 55, 52, -1, 52, 55, 51, -1, 52, 51, 47, -1,
 47, 51, 49, -1, 47, 49, 43, -1, 43, 49, 45, -1,
 43, 45, 36, -1, 38, 39, 46, -1, 68, 64, 69, -1,
 69, 64, 62, -1, 42, 38, 44, -1, 44, 38, 46, -1,
 44, 46, 48, -1, 48, 46, 50, -1, 48, 50, 53, -1,
 53, 50, 54, -1, 53, 54, 58, -1, 58, 54, 56, -1,
 58, 56, 62, -1, 62, 56, 60, -1, 62, 60, 69, -1,
 30, 34, 63, -1, 63, 61, 30, -1, 30, 61, 57, -1,
 30, 57, 26, -1, 26, 57, 52, -1, 26, 52, 23, -1,
 23, 52, 47, -1, 23, 47, 20, -1, 20, 47, 43, -1,
 20, 43, 16, -1, 16, 43, 41, -1, 16, 41, 13, -1,
 41, 40, 13, -1, 13, 40, 42, -1, 13, 42, 17, -1,
 42, 44, 17, -1, 17, 44, 48, -1, 17, 48, 21, -1,
 21, 48, 53, -1, 21, 53, 24, -1, 24, 53, 58, -1,
 24, 58, 27, -1, 27, 58, 62, -1, 27, 62, 31, -1,
 31, 62, 64, -1, 31, 64, 34, -1, 34, 64, 65, -1,
 34, 65, 63, -1, 8, 10, 11, -1, 1, 0, 3, -1,
 3, 0, 11, -1, 3, 11, 5, -1, 5, 11, 9, -1,
 5, 9, 7, -1, 6, 8, 4, -1, 4, 8, 11, -1,
 4, 11, 2, -1, 2, 11, 0, -1, 31, 34, 33, -1,
 31, 33, 27, -1, 27, 33, 29, -1, 27, 29, 24, -1,
 24, 29, 25, -1, 24, 25, 21, -1, 21, 25, 19, -1,
 21, 19, 17, -1, 17, 19, 15, -1, 17, 15, 13, -1,
 13, 15, 12, -1, 13, 12, 16, -1, 16, 12, 14, -1,
 16, 14, 20, -1, 20, 14, 18, -1, 20, 18, 23, -1,
 23, 18, 22, -1, 23, 22, 26, -1, 26, 22, 28, -1,
 26, 28, 30, -1, 30, 28, 32, -1, 30, 32, 34, -1,
 34, 32, 35, -1, 34, 35, 33, -1, 10, 35, 11, -1,
 11, 35, 32, -1, 11, 32, 9, -1, 9, 32, 28, -1,
 9, 28, 7, -1, 7, 28, 22, -1, 7, 22, 5, -1,
 5, 22, 18, -1, 5, 18, 3, -1, 3, 18, 14, -1,
 3, 14, 1, -1, 1, 14, 12, -1, 1, 12, 0, -1,
 0, 12, 15, -1, 0, 15, 2, -1, 2, 15, 19, -1,
 2, 19, 4, -1, 4, 19, 25, -1, 4, 25, 6, -1,
 6, 25, 29, -1, 6, 29, 8, -1, 8, 29, 33, -1,
 8, 33, 10, -1, 10, 33, 35, -1
]
materialIndex [
 1, 1, 1, 1, 1, 1, 1, 1, 1, 1, 2, 2, 2, 2, 2, 2, 2, 2, 2, 2, 3, 3, 3, 3, 3, 3, 3, 3, 3, 3, 3, 3, 3, 3, 3, 3, 3, 3, 3, 3, 3, 3, 3, 3,
 4, 4, 4, 4, 4, 4, 4, 4, 4, 4, 4, 4, 4, 4, 4, 4, 4, 4, 4, 4, 4, 4, 4, 4, 5, 5, 5, 5, 5, 5, 5, 5, 5, 5, 5, 5, 5, 5, 5, 5, 5, 5, 5, 5, 5, 5, 5, 5, 6, 6, 6, 6, 6, 6, 6, 6, 6, 6, 6, 6, 6, 6, 6, 6, 6, 6, 6, 6, 6, 6, 6, 6,
 7, 7, 7, 8, 8, 8, 8, 8, 8, 8, 8, 8, 8, 8, 8, 8, 8, 8, 8, 8, 8, 8, 8, 8, 8, 8, 8, 9, 9, 9,
 10, 10, 10, 10, 10, 11, 12, 12, 12, 12, 12, 12, 12, 12, 12, 12, 12, 12, 12, 12, 12, 12, 12, 12, 12, 12, 12, 12, 12, 12, 12, 12, 12, 12,
 13, 13, 13, 13, 13, 13, 13, 13, 13, 13, 13, 13, 13, 13, 13, 13, 13, 13, 13, 13, 13, 13, 13, 13, 13, 13, 13, 13, 13, 13, 13, 13, 13, 13, 13, 13, 13, 13, 13, 13, 13, 13, 13, 13, 13, 13, 13, 13, 13, 13, 13, 13, 13, 13, 13, 13, 13, 13, 13, 13, 13, 13, 13, 13, 13, 13, 13, 13, 13, 13, 13, 13, 13, 13, 13, 13, 13, 13, 13, 13, 13, 13, 13, 13, 13, 13, 13, 13, 13, 13, 13, 13, 13, 13, 13, 13, 13, 13, 13, 13, 13, 13, 13, 13, 13, 13, 13, 13, 13, 13, 13, 13, 13, 13, 13, 13, 13, 13, 13, 13, 13, 13, 13, 13, 13, 13, 13, 13, 13, 13, 13, 13, 13, 13, 13, 13, 13, 13, 13, 13, 13, 13, 13, 13, 13, 13, 13, 13, 13, 13, 13, 13, 13, 13, 13, 13, 13, 13, 13, 13, 13, 13, 13, 13, 13, 13, 13, 13, 13, 13, 14, 14, 14, 14, 14, 14, 14, 14, 14, 14, 14, 14, 14, 14, 14, 14, 14, 14, 14, 14, 14, 14, 14, 14, 15, 15, 15, 15, 15, 15, 15, 15, 15, 15, 15, 15, 15, 15, 15, 15, 15, 15, 15, 15, 15, 15, 15, 15, 15, 15, 15, 15,
 16, 16, 16, 16, 16, 17, 17, 17, 17, 17, 17, 17, 17, 17, 17, 17, 17, 17, 17, 17, 18, 18, 18, 18, 18, 18, 18, 18, 18, 18, 18, 18, 18, 18, 18, 18, 18, 18, 18, 18, 18, 18, 18, 18, 18, 18, 18, 18, 18, 18, 18, 18, 18, 18, 18, 18, 18, 18, 18, 18, 18, 18, 18, 18, 18, 18, 18, 18, 18, 18, 18, 18, 18, 18, 18, 18, 18, 18, 18, 18, 18, 18, 18, 18, 18, 18, 18, 18, 18, 18, 18, 18, 18, 18, 18, 18, 18, 18, 18, 18, 18, 18, 18, 18, 18, 18, 18, 18, 18, 18, 18, 18, 18, 18, 18, 18, 18, 18, 18, 18, 18, 18, 18, 18, 18, 18, 18, 18, 18, 18, 18, 18, 18, 18, 18, 18, 18, 18, 18, 18, 18, 18, 18, 18, 18, 18, 18, 18, 18, 18, 18, 18, 18, 18, 18, 18, 18, 18, 18, 18, 18, 18, 18, 18, 18, 18, 18, 18, 18,
 19, 19, 19, 19, 19, 19, 19, 19, 19, 19, 19, 19, 19, 20, 21, 21, 21, 21, 21, 21, 21, 21, 21, 21, 21, 21, 21, 21, 21, 21, 21, 21, 21, 21, 21, 21, 21, 21,
 22, 22, 22, 22, 22, 22, 22, 22, 22, 22, 22, 22, 22, 22, 23, 23, 23, 23, 23, 23, 23, 23, 23, 23, 23, 23, 23, 23, 23, 23, 23, 23, 23, 23, 23, 23, 23, 23, 23, 23, 23, 23, 23, 23, 23, 23, 23, 23, 23, 23, 23, 23, 23, 23, 23, 23, 23, 23, 23, 23, 23, 23, 23, 23, 23, 23, 24, 24, 24, 24, 24, 24, 24, 24, 24, 24, 24, 24, 24, 24,
 25, 25, 25, 25, 25, 25, 25, 25, 25, 25, 25, 25, 25, 25, 25, 25, 25, 25, 25, 25, 25, 25, 25, 25, 25, 25, 25, 25, 25, 25, 25, 25, 25, 25, 25, 25, 25, 25, 25, 25, 26, 26, 26, 27, 27, 27, 27, 27, 27, 27, 27, 27, 27, 27, 27, 27,
 28, 28, 28, 28, 28, 28, 28, 28, 28, 28, 28, 28, 28, 28, 28, 28, 28, 28, 28, 28, 28, 28, 28, 28, 28, 28, 28, 28, 28, 28, 28, 28, 28, 28, 28, 28, 28, 28, 28, 28, 28, 28, 28, 28, 28, 28, 28, 28, 28, 28, 28, 28, 28, 28, 28, 28, 28, 28, 28, 28, 28, 28, 28, 28, 28, 28, 28, 28, 28, 28, 28, 28, 28, 28, 28, 28, 28, 28, 28, 28, 28, 29, 29, 29, 30, 30, 30, 30, 30, 30, 30, 30, 30, 30, 30, 30, 30, 30, 30, 30, 30, 30, 30, 30, 30, 30, 30, 30, 30, 30, 30, 30, 30, 30, 30, 30, 30, 30, 30, 30, 30, 30, 30, 30,
 31, 31, 31, 31, 31, 31, 31, 31, 31, 31, 31, 31, 31, 31, 31, 31, 31, 31, 31, 31, 31, 31, 31, 31, 32, 32, 33, 33, 33, 33,
 34, 34, 34, 34, 34, 34, 34, 34, 34, 34, 34, 34, 34, 34, 34, 34, 34, 34, 34, 34, 34, 34, 34, 34, 35, 35, 35, 35, 35, 35, 36, 36, 36, 36, 36, 36, 36, 36, 36, 36, 36, 36, 36, 36, 36, 36, 36, 36, 36, 36, 36, 36, 36, 36, 36, 36, 36, 36, 36, 36, 36, 36, 36, 36, 36, 36,
 37, 37, 37, 37, 37, 37, 37, 37, 37, 37, 37, 37, 37, 38, 38, 38, 38, 38, 38, 38, 38, 38, 38, 38, 38, 38, 38, 38, 38, 38, 38, 38, 38, 38, 38, 38, 38, 38, 38, 38, 38, 38, 38, 38, 38, 38, 38, 38, 38, 38, 38, 38, 38, 38, 38, 38, 38, 38, 38, 38, 38, 38, 38, 39, 39, 39, 39, 39, 39, 39, 39, 39, 39, 39, 39, 39, 39, 39, 39, 39, 39, 39, 39, 39, 39, 39, 39, 39, 39, 39, 39, 39, 39, 39, 39, 39, 39, 39, 39,
 40, 40, 40, 40, 40, 40, 41, 41, 41, 41, 41, 41, 41, 41, 41, 41, 41, 41, 41, 41, 41, 41, 41, 41, 41, 41, 41, 41, 41, 41, 41, 41, 41, 41, 41, 41, 41, 41, 41, 41, 41, 41, 41, 41, 42, 42, 42, 42, 42, 42, 42, 42, 42,
 43, 43, 43, 43, 43, 43, 43, 43, 43, 43, 43, 43, 43, 43, 43, 44, 44, 44, 44, 44, 44, 44, 44, 44, 44, 44, 44, 44, 44, 44, 44, 44, 44, 44, 44, 44, 44, 44, 44, 44, 44, 45, 45, 45, 45, 45, 45, 45, 45, 45, 45, 45, 45, 45, 45, 45,
 46, 46, 46, 46, 46, 46, 46, 46, 46, 47, 47, 47, 47, 47, 47, 47, 47, 47, 47, 47, 47, 47, 47, 47, 47, 47, 47, 47, 47, 47, 47, 47, 47, 47, 47, 47, 47, 47, 47, 47, 47, 47, 47, 47, 47, 47, 47, 48, 48, 48, 48, 48, 48, 48, 48, 48,
 49, 49, 49, 49, 49, 49, 49, 49, 49, 49, 49, 49, 49, 49, 50, 50, 50, 50, 50, 50, 50, 50, 50, 50, 50, 50, 50, 50, 50, 50, 50, 50, 50, 50, 50, 50, 50, 50, 50, 50, 51, 51, 51, 51, 51, 51, 51, 51, 51, 51, 51, 51, 51, 51,
 52, 52, 52, 52, 52, 52, 52, 52, 52, 53, 53, 53, 53, 53, 53, 53, 53, 53, 53, 53, 53, 53, 53, 54, 54, 54, 54, 54, 54, 54, 54, 54, 54, 54, 54, 54, 54,
 55, 55, 55, 55, 55, 55, 55, 55, 55, 55, 55, 55, 55, 55, 55, 55, 55, 55, 55, 55, 55, 55, 55, 55, 55, 55, 55, 55, 56, 56, 56, 56, 56, 56, 56, 56, 56, 56, 57, 57, 57, 57, 57, 57, 57, 57, 57, 57, 57, 57, 57, 57, 57, 57, 57, 57, 57, 57, 57, 57, 57, 57,
 58, 58, 58, 58, 58, 58, 58, 58, 58, 58, 58, 58, 58, 58, 58, 58, 58, 58, 58, 58, 58, 58, 58, 58,
]
}
}
